^D:\DOWNLOAD\PROJECT\C-PROJECT\CONSOLEAPPLICATION5\X64\DEBUG\BOARD.OBJ|D:\DOWNLOAD\PROJECT\C-PROJECT\CONSOLEAPPLICATION5\X64\DEBUG\CARD.OBJ|D:\DOWNLOAD\PROJECT\C-PROJECT\CONSOLEAPPLICATION5\X64\DEBUG\CARDDECK.OBJ|D:\DOWNLOAD\PROJECT\C-PROJECT\CONSOLEAPPLICATION5\X64\DEBUG\DECK.OBJ|D:\DOWNLOAD\PROJECT\C-PROJECT\CONSOLEAPPLICATION5\X64\DEBUG\GAME.OBJ|D:\DOWNLOAD\PROJECT\C-PROJECT\CONSOLEAPPLICATION5\X64\DEBUG\MAINLOOP.OBJ|D:\DOWNLOAD\PROJECT\C-PROJECT\CONSOLEAPPLICATION5\X64\DEBUG\PLAYER.OBJ|D:\DOWNLOAD\PROJECT\C-PROJECT\CONSOLEAPPLICATION5\X64\DEBUG\REWARD.OBJ|D:\DOWNLOAD\PROJECT\C-PROJECT\CONSOLEAPPLICATION5\X64\DEBUG\REWARDDECK.OBJ|D:\DOWNLOAD\PROJECT\C-PROJECT\CONSOLEAPPLICATION5\X64\DEBUG\RULE.OBJ
C:\PROGRAM FILES (X86)\WINDOWS KITS\10\LIB\10.0.16299.0\UM\X64\KERNEL32.LIB
C:\PROGRAM FILES (X86)\WINDOWS KITS\10\LIB\10.0.16299.0\UM\X64\USER32.LIB
C:\PROGRAM FILES (X86)\WINDOWS KITS\10\LIB\10.0.16299.0\UM\X64\GDI32.LIB
C:\PROGRAM FILES (X86)\WINDOWS KITS\10\LIB\10.0.16299.0\UM\X64\WINSPOOL.LIB
C:\PROGRAM FILES (X86)\WINDOWS KITS\10\LIB\10.0.16299.0\UM\X64\COMDLG32.LIB
C:\PROGRAM FILES (X86)\WINDOWS KITS\10\LIB\10.0.16299.0\UM\X64\ADVAPI32.LIB
C:\PROGRAM FILES (X86)\WINDOWS KITS\10\LIB\10.0.16299.0\UM\X64\SHELL32.LIB
C:\PROGRAM FILES (X86)\WINDOWS KITS\10\LIB\10.0.16299.0\UM\X64\OLE32.LIB
C:\PROGRAM FILES (X86)\WINDOWS KITS\10\LIB\10.0.16299.0\UM\X64\OLEAUT32.LIB
C:\PROGRAM FILES (X86)\WINDOWS KITS\10\LIB\10.0.16299.0\UM\X64\UUID.LIB
C:\PROGRAM FILES (X86)\WINDOWS KITS\10\LIB\10.0.16299.0\UM\X64\ODBC32.LIB
C:\PROGRAM FILES (X86)\WINDOWS KITS\10\LIB\10.0.16299.0\UM\X64\ODBCCP32.LIB
D:\DOWNLOAD\PROJECT\C-PROJECT\CONSOLEAPPLICATION5\X64\DEBUG\BOARD.OBJ
D:\DOWNLOAD\PROJECT\C-PROJECT\CONSOLEAPPLICATION5\X64\DEBUG\CARD.OBJ
D:\DOWNLOAD\PROJECT\C-PROJECT\CONSOLEAPPLICATION5\X64\DEBUG\CARDDECK.OBJ
D:\DOWNLOAD\PROJECT\C-PROJECT\CONSOLEAPPLICATION5\X64\DEBUG\DECK.OBJ
D:\DOWNLOAD\PROJECT\C-PROJECT\CONSOLEAPPLICATION5\X64\DEBUG\GAME.OBJ
D:\DOWNLOAD\PROJECT\C-PROJECT\CONSOLEAPPLICATION5\X64\DEBUG\MAINLOOP.OBJ
D:\DOWNLOAD\PROJECT\C-PROJECT\CONSOLEAPPLICATION5\X64\DEBUG\PLAYER.OBJ
D:\DOWNLOAD\PROJECT\C-PROJECT\CONSOLEAPPLICATION5\X64\DEBUG\REWARD.OBJ
D:\DOWNLOAD\PROJECT\C-PROJECT\CONSOLEAPPLICATION5\X64\DEBUG\REWARDDECK.OBJ
D:\DOWNLOAD\PROJECT\C-PROJECT\CONSOLEAPPLICATION5\X64\DEBUG\RULE.OBJ
C:\WINDOWS\GLOBALIZATION\SORTING\SORTDEFAULT.NLS
C:\PROGRAM FILES (X86)\MICROSOFT VISUAL STUDIO\2017\COMMUNITY\VC\TOOLS\MSVC\14.16.27023\LIB\X64\MSVCPRTD.LIB
C:\PROGRAM FILES (X86)\MICROSOFT VISUAL STUDIO\2017\COMMUNITY\VC\TOOLS\MSVC\14.16.27023\LIB\X64\MSVCRTD.LIB
C:\PROGRAM FILES (X86)\MICROSOFT VISUAL STUDIO\2017\COMMUNITY\VC\TOOLS\MSVC\14.16.27023\LIB\X64\OLDNAMES.LIB
C:\PROGRAM FILES (X86)\MICROSOFT VISUAL STUDIO\2017\COMMUNITY\VC\TOOLS\MSVC\14.16.27023\LIB\X64\VCRUNTIMED.LIB
C:\PROGRAM FILES (X86)\WINDOWS KITS\10\LIB\10.0.16299.0\UCRT\X64\UCRTD.LIB
